{
    "websites": [{
            "domain": "http://Google.at"
		},
        {
            "domain": "http://Youtube.com"
		},
        {
            "domain": "http://Google.com"
		},
        {
            "domain": "http://Facebook.com"
		},
        {
            "domain": "http://Amazon.de"
		},
        {
            "domain": "http://Wikipedia.org"
		},
        {
            "domain": "http://Orf.at"
		},
        {
            "domain": "http://Willhaben.at"
		},
        {
            "domain": "http://Reddit.com"
		},
        {
            "domain": "http://Yahoo.com"
		},
        {
            "domain": "http://Derstandard.at"
		},
        {
            "domain": "http://Gmx.net"
		},
        {
            "domain": "http://Gmx.at"
		},
        {
            "domain": "http://Live.com"
		},
        {
            "domain": "http://Twitter.com"
		},
        {
            "domain": "http://Instagram.com"
		},
        {
            "domain": "http://Raiffeisen.at"
		},
        {
            "domain": "http://Sparkasse.at"
		},
        {
            "domain": "http://Pornhub.com"
		},
        {
            "domain": "http://Krone.at"
		},
        {
            "domain": "http://Livejasmin.com"
		},
        {
            "domain": "http://Google.de"
		},
        {
            "domain": "http://Xhamster.com"
		},
        {
            "domain": "http://Vk.com"
		},
        {
            "domain": "http://Netflix.com"
		},
        {
            "domain": "http://Whatsapp.com"
		},
        {
            "domain": "http://Twitch.tv"
		},
        {
            "domain": "http://Ebay.de"
		},
        {
            "domain": "http://Bs.to"
		},
        {
            "domain": "http://Xvideos.com"
		},
        {
            "domain": "http://Chip.de"
		},
        {
            "domain": "http://Bankaustria.at"
		},
        {
            "domain": "http://Ebay.at"
		},
        {
            "domain": "http://Linkedin.com"
		},
        {
            "domain": "http://Paypal.com"
		},
        {
            "domain": "http://Bawagpsk.com"
		},
        {
            "domain": "http://Onclkds.com"
		},
        {
            "domain": "http://Amazon.com"
		},
        {
            "domain": "http://Dict.cc"
		},
        {
            "domain": "http://Bet-at-home.com"
		},
        {
            "domain": "http://Geizhals.at"
		},
        {
            "domain": "http://Booking.com"
		},
        {
            "domain": "http://Microsoft.com"
		},
        {
            "domain": "http://Oebb.at"
		},
        {
            "domain": "http://Bet365.com"
		},
        {
            "domain": "http://Imgur.com"
		},
        {
            "domain": "http://A1.net"
		},
        {
            "domain": "http://Google.ru"
		},
        {
            "domain": "http://Vice.com"  
		},      
		{
            "domain": "http://Wordpress.com"
		},
        {
            "domain": "http://Wienerzeitung.at"
		},
        {
            "domain": "http://Fm4.orf.at"
		},
        {
            "domain": "http://Austria.org"
		},
        {
            "domain": "http://Play.fm"
		},
        {
            "domain": "http://Friedlnews.com"
		},
        {
            "domain": "http://Oebb.at"
		},
        {
            "domain": "http://Herold.at"
		},
        {
            "domain": "http://Wien.gv.at"
		},
        {
            "domain": "http://Austrian.com"
		},
        {
            "domain": "http://Help.gv.at"
		},
        {
            "domain": "http://Glock.com"
		},
        {
            "domain": "http://Wienerzeitung.at"
		},
        {
            "domain": "http://Austria.info"
		},
        {
            "domain": "http://Ris.bka.gv.at"
		},
        {
            "domain": "http://Bmeia.gv.at"
		},
        {
            "domain": "http://Avl.com"
		},
        {
            "domain": "http://Viennaairport.com"
		},
        {
            "domain": "http://Fm4.orf.at"
		},
        {
            "domain": "http://Blum.com"
		},
        {
            "domain": "http://Altova.com"
		},
        {
            "domain": "http://Aec.at"
		},
        {
            "domain": "http://Oeaw.ac.at"
		},
        {
            "domain": "http://Noe.gv.at"
		},
        {
            "domain": "http://Salzburg.info"
		},
        {
            "domain": "http://Viennaticketoffice.com"
		},
        {
            "domain": "http://Statistik.at"
		},
        {
            "domain": "http://Iiasa.ac.at"
		},
        {
            "domain": "http://Voestalpine.com"
		},
        {
            "domain": "http://Fk-austria.at"
		},
        {
            "domain": "http://Uni-klu.ac.at"
		},
        {
            "domain": "http://Austrocontrol.at"	
		},
        {
            "domain": "http://Parlament.gv.at"	
		},
        {
            "domain": "http://Anton-paar.com"	
		},
        {
            "domain": "http://Feratel.at"	
		},
        {
            "domain": "http://Advantageaustria.org"	
		},
        {
            "domain": "http://Andritz.com"	
		},
        {
            "domain": "http://Swarovskioptik.com"	
		},
        {
            "domain": "http://Schoenbrunn.at"	
		},
        {
            "domain": "http://Kapsch.net"	
		},
        {
            "domain": "http://Fhwn.ac.at"	
		},
        {
            "domain": "http://Gastein.com"	
		},
        {
            "domain": "http://Ischgl.com"	
		},
        {
            "domain": "http://muenzeoesterreich.at"	
		},
        {
            "domain": "http://Alpbach.org"	
		},
        {
            "domain": "http://Salzburgerland.com"	
		},
        {
            "domain": "http://Br-automation.com"	
		},
        {
            "domain": "http://Verbund.com"	
		},
        {
            "domain": "http://Ergonis.com"
		},
        {
            "domain": "http://rtr.at"
		},
        {
            "domain": "http://Saalbach.com"	
		},
        {
            "domain": "http://Engelglobal.com"	
		},
        {
            "domain": "http://Wienerphilharmoniker.at"	
		},
        {
            "domain": "http://Palfinger.com"	
		},
        {
            "domain": "http://Kaernten.at"
		}
    ]
}