{
	"websites": [{
			"domain": "Https://twitter.com/#!/MD_Prokhorov"
		},
		{
			"domain": "http://Google.co.uk"
		},
		{
			"domain": "http://Amazon.co.uk"
		},
		{
			"domain": "http://Bbc.co.uk"
		},
		{
			"domain": "http://Theguardian.com"
		},
		{
			"domain": "http://Ebay.co.uk"
		},
		{
			"domain": "http://Dailymail.co.uk"
		},
		{
			"domain": "http://Bet365.com"
		},
		{
			"domain": "http://Bbc.com/news"
		},
		{
			"domain": "http://Google.ie"
		},
		{
			"domain": "http://Telegraph.co.uk"
		},
		{
			"domain": "http://Asos.com"
		},
		{
			"domain": "http://Rt.com"
		},
		{
			"domain": "http://Independent.co.uk"
		},
		{
			"domain": "http://Edition.cnn.com"
		},
		{
			"domain": "http://Express.co.uk"
		},
		{
			"domain": "http://Espncricinfo.com"
		},
		{
			"domain": "http://Reuters.com"
		},
		{
			"domain": "http://Cambridge.org"
		},
		{
			"domain": "http://Hm.com"
		},
		{
			"domain": "http://Webex.com"
		},
		{
			"domain": "http://Premierleague.com"
		},
		{
			"domain": "http://Google.rs"
		},
		{
			"domain": "http://Mirror.co.uk"
		},
		{
			"domain": "http://Thesun.co.uk"
		},
		{
			"domain": "http://Cdiscount.com"
		},
		{
			"domain": "Https://my.screenname.aol.com/"
		},
		{
			"domain": "http://Skysports.com"
		},
		{
			"domain": "http://Bbc.com/sport"
		},
		{
			"domain": "http://Uk.search.yahoo.com"
		},
		{
			"domain": "http://Sky.com"
		},
		{
			"domain": "http://Rightmove.co.uk"
		},
		{
			"domain": "http://Ryanair.com"
		},
		{
			"domain": "Https://www.united.com/"
		},
		{
			"domain": "http://Gumtree.com"
		},
		{
			"domain": "http://Bbc.co.uk/programmes"
		},
		{
			"domain": "http://Metro.co.uk"
		},
		{
			"domain": "http://Dw.com"
		},
		{
			"domain": "http://Bbc.co.uk/weather/"
		},
		{
			"domain": "http://Bt.com"
		},
		{
			"domain": "http://Hsbc.co.uk"
		},
		{
			"domain": "http://Eset.com"
		},
		{
			"domain": "http://Skysports.com/football"
		},
		{
			"domain": "Https://uk.yahoo.com/"
		},
		{
			"domain": "http://Newsnow.co.uk"
		},
		{
			"domain": "http://Argos.co.uk"
		},
		{
			"domain": "http://Voyages-sncf.com"
		},
		{
			"domain": "Https://www.ft.com"
		},
		{
			"domain": "http://Thomann.de"
		},
		{
			"domain": "http://Oup.com"
		},
		{
			"domain": "http://Sap.com"
		},
		{
			"domain": "http://Santander.co.uk"
		},
		{
			"domain": "http://Trustedreviews.com"
		},
		{
			"domain": "http://Easyjet.com"
		},
		{
			"domain": "http://Economist.com"
		},
		{
			"domain": "http://Virginmedia.com"
		},
		{
			"domain": "http://Hotukdeals.com"
		},
		{
			"domain": "http://Tesco.com"
		},
		{
			"domain": "Https://www.here.com"
		},
		{
			"domain": "http://Uefa.com"
		},
		{
			"domain": "http://Indeed.co.uk"
		},
		{
			"domain": "http://Google.lu"
		},
		{
			"domain": "http://Dailystar.co.uk"
		},
		{
			"domain": "http://Who.int"
		},
		{
			"domain": "http://Britishcouncil.org"
		},
		{
			"domain": "http://Autotrader.co.uk"
		},
		{
			"domain": "http://Cosmopolitan.com"
		},
		{
			"domain": "http://Channel4.com"
		},
		{
			"domain": "http://Barclays.co.uk"
		},
		{
			"domain": "http://Aruba.it"
		},
		{
			"domain": "http://Mirror.co.uk/sport/"
		},
		{
			"domain": "http://News.sky.com "
		},
		{
			"domain": "http://Moneysavingexpert.com"
		},
		{
			"domain": "http://Zoopla.co.uk"
		},
		{
			"domain": "http://Independent.co.uk/arts-entertainment/"
		},
		{
			"domain": "http://Royalmail.com"
		},
		{
			"domain": "http://Euronews.com"
		},
		{
			"domain": "http://Britishairways.com"
		},
		{
			"domain": "http://Service-public.fr"
		},
		{
			"domain": "http://Ebay.ie"
		},
		{
			"domain": "http://Thetrainline.com"
		},
		{
			"domain": "http://Sportsdirect.com"
		},
		{
			"domain": "http://Voanews.com"
		},
		{
			"domain": "http://Nationwide.co.uk"
		},
		{
			"domain": "http://Macworld.co.uk"
		},
		{
			"domain": "http://Lloydsbank.com"
		},
		{
			"domain": "http://Lufthansa.com"
		},
		{
			"domain": "Https://www.nokia.com"
		},
		{
			"domain": "http://Natwest.com"
		},
		{
			"domain": "http://Johnlewis.com"
		},
		{
			"domain": "http://Companieshouse.gov.uk"
		},
		{
			"domain": "http://Independent.ie"
		},
		{
			"domain": "http://Bbc.co.uk/radio"
		},
		{
			"domain": "http://Siemens.com"
		},
		{
			"domain": "http://Nme.com"
		},
		{
			"domain": "http://Gsis.gr"
		},
		{
			"domain": "http://Itv.com"
		},
		{
			"domain": "http://Standard.co.uk"
		},
		{
			"domain": "http://Tfl.gov.uk"
		},
		{
			"domain": "http://National-lottery.co.uk"
		},
		{
			"domain": "http://Currys.co.uk"
		},
		{
			"domain": "http://Home.bt.com"
		},
		{
			"domain": "http://Marksandspencer.com"
		},
		{
			"domain": "http://Nationalrail.co.uk"
		},
		{
			"domain": "http://Uk.news.yahoo.com"
		},
		{
			"domain": "http://Aeroflot.ru"
		},
		{
			"domain": "http://Thermofisher.com"
		},
		{
			"domain": "http://Meta.ua"
		},
		{
			"domain": "Https://www.klm.com"
		},
		{
			"domain": "http://Ubs.com"
		},
		{
			"domain": "http://Thetimes.co.uk"
		},
		{
			"domain": "http://Telegraph.co.uk/technology/"
		},
		{
			"domain": "http://Topshop.com"
		},
		{
			"domain": "http://Prnewswire.com"
		},
		{
			"domain": "http://Irishtimes.com"
		},
		{
			"domain": "http://Asda.com"
		},
		{
			"domain": "http://Iop.org"
		},
		{
			"domain": "http://Independent.co.uk/sport/"
		},
		{
			"domain": "http://Selfridges.com"
		},
		{
			"domain": "http://Reed.co.uk"
		},
		{
			"domain": "http://B92.net"
		},
		{
			"domain": "Https://www.nbg.gr"
		},
		{
			"domain": "http://Chainreactioncycles.com"
		},
		{
			"domain": "http://Formula1.com"
		},
		{
			"domain": "http://Screwfix.com"
		},
		{
			"domain": "http://Next.co.uk"
		},
		{
			"domain": "http://Sainsburys.co.uk"
		},
		{
			"domain": "http://Admin.ch"
		},
		{
			"domain": "http://Metoffice.gov.uk"
		},
		{
			"domain": "http://Boards.ie"
		},
		{
			"domain": "http://Manchestereveningnews.co.uk"
		},
		{
			"domain": "http://Boots.com"
		},
		{
			"domain": "Https://www.williamhill.com"
		},
		{
			"domain": "http://Rtbf.be"
		},
		{
			"domain": "http://Renfe.com"
		},
		{
			"domain": "http://Sncf.com"
		},
		{
			"domain": "http://Rte.ie"
		},
		{
			"domain": "http://Ceskatelevize.cz"
		},
		{
			"domain": "http://Diy.com"
		},
		{
			"domain": "http://Gva.es"
		},
		{
			"domain": "http://Weforum.org"
		},
		{
			"domain": "http://Iberia.com"
		},
		{
			"domain": "http://Sbb.ch"
		},
		{
			"domain": "http://Liverpoolecho.co.uk"
		},
		{
			"domain": "http://Theregister.co.uk"
		},
		{
			"domain": "http://Myprotein.com"
		},
		{
			"domain": "http://Three.co.uk"
		},
		{
			"domain": "http://Spareroom.co.uk"
		},
		{
			"domain": "http://Berlin.de"
		},
		{
			"domain": "http://Realmadrid.com"
		},
		{
			"domain": "http://Advfn.com"
		},
		{
			"domain": "http://Alpha.gr"
		},
		{
			"domain": "http://Radiotimes.com"
		},
		{
			"domain": "http://Eurobank.gr"
		},
		{
			"domain": "http://Newscientist.com"
		},
		{
			"domain": "http://Expedia.co.uk"
		},
		{
			"domain": "http://Daft.i"
		},
		{
			"domain": "http://Active.com"
		},
		{
			"domain": "http://debenhams.com"
		},
		{
			"domain": "http://Telegraph.co.uk/football/"
		},
		{
			"domain": "http://Immoweb.be"
		},
		{
			"domain": "Https://www.tnt.com"
		},
		{
			"domain": "http://Vodafone.co.uk"
		},
		{
			"domain": "http://Houseoffraser.co.uk"
		},
		{
			"domain": "http://Ucas.com"
		},
		{
			"domain": "http://Bbc.co.uk/sport/formula1"
		},
		{
			"domain": "http://Dominos.co.uk"
		},
		{
			"domain": "http://Newlook.com"
		},
		{
			"domain": "http://Halifax.co.uk"
		},
		{
			"domain": "http://Bbc.co.uk/news/business"
		},
		{
			"domain": "http://Pistonheads.com"
		},
		{
			"domain": "http://Avm.de"
		},
		{
			"domain": "http://Mps.it"
		},
		{
			"domain": "http://Hsbc.com"
		},
		{
			"domain": "http://Jdsports.co.uk"
		},
		{
			"domain": "http://Swisscom.ch"
		},
		{
			"domain": "http://Slc.co.uk"
		},
		{
			"domain": "http://Ancestry.co.uk"
		},
		{
			"domain": "http://Which.co.uk"
		},
		{
			"domain": "http://Theoutnet.com"
		},
		{
			"domain": "http://Aol.co.uk"
		},
		{
			"domain": "Https://www.swedbank.ee"
		},
		{
			"domain": "http://Quidco.com"
		},
		{
			"domain": "http://Yougov.com"
		},
		{
			"domain": "http://Krakow.pl"
		},
		{
			"domain": "http://Hellomagazine.com"
		},
		{
			"domain": "Https://www.1and1.co.uk"
		},
		{
			"domain": "Https://jobsearch.direct.gov.uk"
		},
		{
			"domain": "http://Wipo.int"
		},
		{
			"domain": "http://rwth-aachen.de"
		},
		{
			"domain": "http://O2.co.uk"
		},
		{
			"domain": "http://Adverts.ie"
		},
		{
			"domain": "http://Goethe.de"
		},
		{
			"domain": "http://Jobsite.co.uk"
		},
		{
			"domain": "http://Oebb.at"
		},
		{
			"domain": "http://Game.co.uk"
		},
		{
			"domain": "http://Suomi.fi"
		},
		{
			"domain": "http://Topgear.com"
		},
		{
			"domain": "http://Slsp.sk"
		},
		{
			"domain": "http://Alitalia.com"
		},
		{
			"domain": "http://Abb.com"
		},
		{
			"domain": "http://Bbc.co.uk/news/technology/"
		},
		{
			"domain": "http://Paris.fr"
		},
		{
			"domain": "http://Cern.ch"
		},
		{
			"domain": "http://Overclockers.co.uk"
		},
		{
			"domain": "http://Bbc.co.uk/schools/gcsebitesize/"
		},
		{
			"domain": "http://Ticketmaster.co.uk"
		},
		{
			"domain": "http://Polimi.it"
		},
		{
			"domain": "http://Gateway.gov.uk"
		},
		{
			"domain": "http://Bbc.co.uk/food/"
		},
		{
			"domain": "http://Cv-library.co.uk"
		},
		{
			"domain": "http://Yell.com"
		},
		{
			"domain": "http://Ing.be"
		},
		{
			"domain": "http://Pravda.ru"
		},
		{
			"domain": "http://Vatican.va"
		},
		{
			"domain": "http://Tatarstan.ru"
		},
		{
			"domain": "http://Mikrotik.com"
		},
		{
			"domain": "http://Bbc.co.uk/bbcthree/"
		},
		{
			"domain": "http://123-reg.co.uk"
		},
		{
			"domain": "http://Helsinki.fi"
		},
		{
			"domain": "http://Viamichelin.fr"
		},
		{
			"domain": "http://Justgiving.com"
		},
		{
			"domain": "http://Vivastreet.co.uk"
		},
		{
			"domain": "http://Nationalexpress.com"
		},
		{
			"domain": "http://Bankofscotland.co.uk"
		},
		{
			"domain": "http://Ns.nl"
		},
		{
			"domain": "http://Coral.co.uk"
		},
		{
			"domain": "http://Belgium.be"
		},
		{
			"domain": "http://Uswitch.com"
		},
		{
			"domain": "http://Bbc.co.uk/tv"
		},
		{
			"domain": "http://Hl.co.uk"
		},
		{
			"domain": "http://Missguided.co.uk"
		},
		{
			"domain": "http://Riverisland.com"
		},
		{
			"domain": "http://Monster.co.uk"
		},
		{
			"domain": "http://Bnf.fr"
		},
		{
			"domain": "http://Wiggle.co.uk"
		},
		{
			"domain": "http://vSwiss.com"
		},
		{
			"domain": "http://Wickes.co.uk"
		},
		{
			"domain": "http://Poznan.pl"
		},
		{
			"domain": "http://Ebuyer.com"
		},
		{
			"domain": "http://Newbalance.com"
		},
		{
			"domain": "http://Halfords.com"
		},
		{
			"domain": "http://Ocado.com"
		},
		{
			"domain": "http://Carphonewarehouse.com"
		},
		{
			"domain": "http://Bbc.co.uk/education"
		},
		{
			"domain": "http://Pcworld.co.uk"
		},
		{
			"domain": "http://Bbc.co.uk/weather/2643743"
		},
		{
			"domain": "http://Unian.net"
		},
		{
			"domain": "http://Cnrs.fr"
		},
		{
			"domain": "http://Bbc.co.uk/search/"
		},
		{
			"domain": "http://Diplomatie.gouv.fr"
		},
		{
			"domain": "http://demorgen.be"
		},
		{
			"domain": "http://Theinquirer.net"
		},
		{
			"domain": "http://Autosport.com"
		},
		{
			"domain": "http://Firstdirect.com"
		},
		{
			"domain": "http://Kela.fi"
		},
		{
			"domain": "http://Independent.co.uk/news/uk/politics/"
		},
		{
			"domain": "http://Autoexpress.co.uk"
		},
		{
			"domain": "http://Sportingbet.com"
		},
		{
			"domain": "http://Visa4uk.fco.gov.uk"
		},
		{
			"domain": "http://Arbetsformedlingen.se"
		},
		{
			"domain": "http://Rug.nl"
		},
		{
			"domain": "http://Scan.co.uk"
		},
		{
			"domain": "http://Fxstreet.com"
		},
		{
			"domain": "http://Aerlingus.com"
		},
		{
			"domain": "http://Accaglobal.com"
		},
		{
			"domain": "http://Prospects.ac.uk"
		},
		{
			"domain": "http://Telegraph.co.uk/culture/"
		},
		{
			"domain": "http://Salary.com"
		},
		{
			"domain": "http://Aegeanair.com"
		},
		{
			"domain": "http://Topman.com"
		},
		{
			"domain": "http://Meltwater.com"
		},
		{
			"domain": "http://Flytap.com"
		},
		{
			"domain": "http://Walesonline.co.uk"
		},
		{
			"domain": "http://Iso.org"
		},
		{
			"domain": "http://Feelunique.com"
		},
		{
			"domain": "http://Avianca.com"
		},
		{
			"domain": "http://Eurostar.com"
		},
		{
			"domain": "http://Hamburg.de"
		},
		{
			"domain": "Https://uk.sports.yahoo.com"
		},
		{
			"domain": "http://Interieur.gouv.fr"
		},
		{
			"domain": "http://Tkmaxx.com"
		},
		{
			"domain": "http://Flyuia.com"
		},
		{
			"domain": "http://Daimler.com"
		},
		{
			"domain": "http://Ladbrokes.com"
		},
		{
			"domain": "http://Maplin.co.uk"
		},
		{
			"domain": "http://Superdrug.com"
		},
		{
			"domain": "http://Vub.sk"
		},
		{
			"domain": "http://Empireonline.com"
		},
		{
			"domain": "http://Cineworld.co.uk"
		},
		{
			"domain": "http://Netapp.com"
		},
		{
			"domain": "http://Kit.edu"
		},
		{
			"domain": "http://Bbc.co.uk/radio4/"
		},
		{
			"domain": "http://Wilko.com"
		},
		{
			"domain": "http://Bbc.co.uk/news/entertainment_and_arts"
		},
		{
			"domain": "http://Theaa.com"
		},
		{
			"domain": "http://Evanscycles.com"
		},
		{
			"domain": "http://Seetickets.com"
		},
		{
			"domain": "http://Independent.co.uk/arts-entertainment/films/"
		},
		{
			"domain": "http://Uk.rs-online.com"
		},
		{
			"domain": "http://Thedrum.com"
		},
		{
			"domain": "http://Homebase.co.uk"
		},
		{
			"domain": "http://Airfrance.com"
		},
		{
			"domain": "http://Bvg.de"
		},
		{
			"domain": "http://Preloved.co.uk"
		},
		{
			"domain": "http://Notonthehighstreet.com"
		},
		{
			"domain": "http://Uoa.gr"
		},
		{
			"domain": "http://Co-operativebank.co.uk"
		},
		{
			"domain": "http://Jobs.nhs.uk"
		},
		{
			"domain": "http://Bbc.co.uk/news/science_and_environment/"
		},
		{
			"domain": "http://Irishexaminer.com"
		},
		{
			"domain": "http://Pinknews.co.uk"
		},
		{
			"domain": "http://Birminghammail.co.uk"
		},
		{
			"domain": "http://Telekom.hu"
		},
		{
			"domain": "http://Wroclaw.com"
		},
		{
			"domain": "http://Bl.uk"
		},
		{
			"domain": "http://Dailyrecord.co.uk"
		},
		{
			"domain": "http://Bund.de"
		},
		{
			"domain": "http://Examenglish.com"
		},
		{
			"domain": "http://Britishgas.co.uk"
		},
		{
			"domain": "http://Waitrose.com"
		},
		{
			"domain": "http://Sony.co.uk"
		},
		{
			"domain": "http://Newstatesman.com"
		},
		{
			"domain": "http://Beautybay.com"
		},
		{
			"domain": "http://Thelancet.com"
		},
		{
			"domain": "http://Hel.fi"
		},
		{
			"domain": "http://Bbc.com/sport/tennis"
		},
		{
			"domain": "http://Oaed.gr"
		},
		{
			"domain": "http://Finnair.com"
		},
		{
			"domain": "http://Mon.gov.ua"
		},
		{
			"domain": "http://Odeon.co.uk"
		},
		{
			"domain": "http://Scotsman.com"
		},
		{
			"domain": "http://Rejseplanen.dk"
		},
		{
			"domain": "http://Lookfantastic.com"
		},
		{
			"domain": "http://Ao.com"
		},
		{
			"domain": "http://Herold.at"
		},
		{
			"domain": "http://Rbs.co.uk"
		},
		{
			"domain": "http://Ilo.org"
		},
		{
			"domain": "http://Postoffice.co.uk"
		},
		{
			"domain": "http://Harrods.com"
		},
		{
			"domain": "http://Gq-magazine.co.uk"
		},
		{
			"domain": "http://Jobs.theguardian.com"
		},
		{
			"domain": "http://Chrono24.com"
		},
		{
			"domain": "http://Jobs.ac.uk"
		},
		{
			"domain": "http://Juno.co.uk"
		},
		{
			"domain": "http://Gameloft.com"
		},
		{
			"domain": "http://Spectator.co.uk"
		},
		{
			"domain": "http://Sportinglife.com"
		},
		{
			"domain": "http://Serif.com"
		},
		{
			"domain": "Https://www.aldi.co.uk"
		},
		{
			"domain": "http://Hungryhouse.co.uk"
		},
		{
			"domain": "http://Bbc.com/sport/cricket"
		},
		{
			"domain": "http://Vogue.co.uk"
		},
		{
			"domain": "http://Confused.com"
		},
		{
			"domain": "http://Ricksteves.com"
		},
		{
			"domain": "http://Muenchen.de"
		},
		{
			"domain": "http://Morrisons.com"
		},
		{
			"domain": "http://Ruhr-uni-bochum.de"
		},
		{
			"domain": "http://Bbc.co.uk/bbcone/"
		},
		{
			"domain": "http://Unhcr.org"
		},
		{
			"domain": "http://Skysports.com/boxing"
		},
		{
			"domain": "http://Uni-bonn.de"
		},
		{
			"domain": "http://Racingpost.com"
		},
		{
			"domain": "http://Nationalarchives.gov.uk"
		},
		{
			"domain": "http://Independent.co.uk/news/business/"
		},
		{
			"domain": "http://Bfi.org.uk"
		},
		{
			"domain": "http://Smhi.se"
		},
		{
			"domain": "http://Myvue.com"
		},
		{
			"domain": "http://Ucc.ie"
		},
		{
			"domain": "http://Chevening.org"
		},
		{
			"domain": "http://Wien.gv.at"
		},
		{
			"domain": "http://Parcel2go.com"
		},
		{
			"domain": "http://Etrend.sk"
		},
		{
			"domain": "http://Kavkazcenter.com"
		},
		{
			"domain": "http://Ehu.eus"
		},
		{
			"domain": "http://Premierinn.com"
		},
		{
			"domain": "http://Credit-suisse.com"
		},
		{
			"domain": "http://Ohchr.org"
		},
		{
			"domain": "http://Targetjobs.co.uk"
		},
		{
			"domain": "http://Bbc.co.uk/radio1/"
		},
		{
			"domain": "http://Chroniclelive.co.uk"
		},
		{
			"domain": "http://Arm.com"
		},
		{
			"domain": "http://Lipsy.co.uk"
		},
		{
			"domain": "http://Childrensalon.com"
		},
		{
			"domain": "http://Posti.fi"
		},
		{
			"domain": "http://Independent.ie/sport/"
		},
		{
			"domain": "Https://www.headspace.com"
		},
		{
			"domain": "http://Rekvizitai.vz.lt"
		},
		{
			"domain": "http://Brusselsairlines.com"
		},
		{
			"domain": "http://Visitlondon.com"
		},
		{
			"domain": "http://Mandmdirect.com"
		},
		{
			"domain": "http://Virgin.com"
		},
		{
			"domain": "http://Dhl.co.uk"
		},
		{
			"domain": "http://Cultbeauty.co.uk"
		},
		{
			"domain": "http://Itv.com/news/"
		},
		{
			"domain": "http://Tate.org.uk"
		},
		{
			"domain": "http://Hollandandbarrett.com"
		},
		{
			"domain": "http://Babycentre.co.uk"
		},
		{
			"domain": "http://Nectar.com"
		},
		{
			"domain": "http://Bp.com"
		},
		{
			"domain": "http://Vodafone.gr"
		},
		{
			"domain": "http://Betfred.com"
		},
		{
			"domain": "http://Aqa.org.uk"
		},
		{
			"domain": "http://Store.virginmedia.com"
		},
		{
			"domain": "http://Parliament.uk"
		},
		{
			"domain": "http://Belgacom.be"
		},
		{
			"domain": "http://888sport.com"
		},
		{
			"domain": "http://Motorcyclenews.com"
		},
		{
			"domain": "http://Wind.gr"
		},
		{
			"domain": "http://tu-darmstadt.de"
		},
		{
			"domain": "http://Studentbeans.com"
		},
		{
			"domain": "http://Tatrabanka.sk"
		},
		{
			"domain": "http://Dunelm.com"
		},
		{
			"domain": "http://Hireright.com"
		},
		{
			"domain": "http://Lbc.co.uk"
		},
		{
			"domain": "http://Mandy.com"
		},
		{
			"domain": "http://Austrian.com"
		},
		{
			"domain": "http://Bbc.co.uk/news/scotland/"
		},
		{
			"domain": "http://Sixt.com"
		},
		{
			"domain": "http://Posten.no"
		},
		{
			"domain": "http://Superdry.com"
		},
		{
			"domain": "http://Imobiliare.ro"
		},
		{
			"domain": "Https://www.puregym.com"
		},
		{
			"domain": "http://Feedreader.com"
		},
		{
			"domain": "http://Spoongraphics.co.uk"
		},
		{
			"domain": "http://Abcam.com"
		},
		{
			"domain": "http://Thisismoney.co.uk"
		},
		{
			"domain": "http://Office.co.uk"
		},
		{
			"domain": "http://Flybe.com"
		},
		{
			"domain": "http://Tu-chemnitz.de"
		},
		{
			"domain": "http://Whatcar.com"
		},
		{
			"domain": "http://Skf.com"
		},
		{
			"domain": "http://Explorimmo.com"
		},
		{
			"domain": "http://Gear4music.com"
		},
		{
			"domain": "http://Nationaltrust.org.uk"
		},
		{
			"domain": "http://Virgintrains.co.uk"
		},
		{
			"domain": "http://Met.ie"
		},
		{
			"domain": "http://Telegraph.co.uk/sport/"
		},
		{
			"domain": "Https://www.lyst.co.uk"
		},
		{
			"domain": "http://Renault.com"
		},
		{
			"domain": "http://Admiral.com"
		},
		{
			"domain": "http://Belfasttelegraph.co.uk"
		},
		{
			"domain": "http://Vodafone.ie"
		},
		{
			"domain": "http://Travelodge.co.uk"
		},
		{
			"domain": "http://Classicfm.com"
		},
		{
			"domain": "Https://www.eonenergy.com"
		},
		{
			"domain": "http://Capitalfm.com"
		},
		{
			"domain": "http://Bristolpost.co.uk"
		},
		{
			"domain": "http://Viamichelin.com"
		},
		{
			"domain": "http://Elleuk.com"
		},
		{
			"domain": "http://Mav-start.hu"
		},
		{
			"domain": "http://Toolstation.com"
		},
		{
			"domain": "http://Christies.com"
		},
		{
			"domain": "http://Raileurope.com"
		},
		{
			"domain": "http://Citizensadvice.org.uk"
		},
		{
			"domain": "http://Auswaertiges-amt.de"
		},
		{
			"domain": "http://Sachsen.de"
		},
		{
			"domain": "http://Roche.com"
		},
		{
			"domain": "http://Lidl.co.uk"
		},
		{
			"domain": "http://Itu.int"
		},
		{
			"domain": "http://Cancerresearchuk.org"
		},
		{
			"domain": "http://Globalsign.com"
		},
		{
			"domain": "http://Airbaltic.com"
		},
		{
			"domain": "http://Thelocal.se"
		},
		{
			"domain": "http://Thefa.com"
		},
		{
			"domain": "http://Savethestudent.org"
		},
		{
			"domain": "http://Insee.fr"
		},
		{
			"domain": "http://Migrationsverket.se"
		},
		{
			"domain": "http://Ok.co.uk"
		},
		{
			"domain": "http://Swissinfo.ch"
		},
		{
			"domain": "http://Npower.com"
		},
		{
			"domain": "http://Hse.gov.uk"
		},
		{
			"domain": "http://Sothebys.com"
		},
		{
			"domain": "http://Zn.ua"
		},
		{
			"domain": "http://Telegraph.co.uk/education/"
		},
		{
			"domain": "http://Halooglasi.com"
		},
		{
			"domain": "http://Heathrow.com"
		},
		{
			"domain": "http://Edfenergy.com"
		},
		{
			"domain": "http://Karelia.ru"
		},
		{
			"domain": "http://Ecb.europa.eu"
		},
		{
			"domain": "http://Thelocal.de"
		},
		{
			"domain": "http://Mtv.co.uk"
		},
		{
			"domain": "Https://www.fasthosts.co.uk"
		},
		{
			"domain": "http://Andertons.co.uk"
		},
		{
			"domain": "http://Gooutdoors.co.uk"
		},
		{
			"domain": "http://Airbus.com"
		},
		{
			"domain": "http://Mfa.gov.ua"
		},
		{
			"domain": "http://Canadainternational.gc.ca"
		},
		{
			"domain": "http://Attheraces.com"
		},
		{
			"domain": "http://Sztaki.hu"
		},
		{
			"domain": "http://Clarks.co.uk"
		},
		{
			"domain": "http://Adobe.com/uk/"
		},
		{
			"domain": "http://Uni-jena.de"
		}
	]
}