{
    "websites": [{
            "domain": "Google.com"
        },
        {
            "domain": "Youtube.com"
        },
        {
            "domain": "Facebook.com"
        },
        {
            "domain": "Amazon.com"
        },
        {
            "domain": "Reddit.com"
        },
        {
            "domain": "Yahoo.com"
        },
        {
            "domain": "Wikipedia.org"
        },
        {
            "domain": "Twitter.com"
        },
        {
            "domain": "Ebay.com"
        },
        {
            "domain": "Netflix.com"
        },
        {
            "domain": "Linkedin.com"
        },
        {
            "domain": "Imgur.com"
        },
        {
            "domain": "Instagram.com"
        },
        {
            "domain": "Craigslist.org"
        },
        {
            "domain": "Twitch.tv"
        },
        {
            "domain": "Live.com"
        },
        {
            "domain": "Pornhub.com"
        },
        {
            "domain": "Diply.com"
        },
        {
            "domain": "T.co"
        },
        {
            "domain": "Wikia.com"
        },
        {
            "domain": "bing.com"
        },
        {
            "domain": "Pinterest.com"
        },
        {
            "domain": "Chase.com"
        },
        {
            "domain": "Microsoftonline.com"
        },
        {
            "domain": "Imdb.com"
        },
        {
            "domain": "Paypal.com"
        },
        {
            "domain": "Cnn.com"
        },
        {
            "domain": "Espn.com"
        },
        {
            "domain": "Livejasmin.com"
        },
        {
            "domain": "Nytimes.com"
        },
        {
            "domain": "Yelp.com"
        },
        {
            "domain": "Walmart.com"
        },
        {
            "domain": "Apple.com"
        },
        {
            "domain": "Bankofamerica.com"
        },
        {
            "domain": "Xvideos.com"
        },
        {
            "domain": "Wellsfargo.com"
        },
        {
            "domain": "Salesforce.com"
        },
        {
            "domain": "Microsoft.com"
        },
        {
            "domain": "Zillow.com"
        },
        {
            "domain": "Metropcs.mobi"
        },
        {
            "domain": "Blogspot.com"
        },
        {
            "domain": "Msn.com"
        },
        {
            "domain": "Github.com"
        },
        {
            "domain": "Washingtonpost.com"
        },
        {
            "domain": "Dropbox.com"
        },
        {
            "domain": "Stackoverflow.com"
        },
        {
            "domain": "Wordpress.com"
        },
        {
            "domain": "Buzzfeed.com"
        },
        {
            "domain": "Indeed.com"
        },
        {
            "domain": "Thepiratebay.org"
        },
        {
            "domain": "Soundcloud.com"
        },
        {
            "domain": "Etsy.com"
        },
        {
            "domain": "Weather.com"
        },
        {
            "domain": "Xfinity.com"
        },
        {
            "domain": "Foxnews.com"
        },
        {
            "domain": "Force.com"
        },
        {
            "domain": "Adobe.com"
        },
        {
            "domain": "Bestbuy.com"
        },
        {
            "domain": "Redd.it"
        },
        {
            "domain": "Googleusercontent.com"
        },
        {
            "domain": "Tfetimes.com"
        },
        {
            "domain": "Quora.com"
        },
        {
            "domain": "Huffingtonpost.com"
        },
        {
            "domain": "Xhamster.com"
        },
        {
            "domain": "Homedepot.com"
        },
        {
            "domain": "Breitbart.com"
        },
        {
            "domain": "Tripadvisor.com"
        },
        {
            "domain": "Aol.com"
        },
        {
            "domain": "Capitalone.com"
        },
        {
            "domain": "Vice.com"
        },
        {
            "domain": "Gfycat.com"
        },
        {
            "domain": "4chan.org"
        },
        {
            "domain": "Hulu.com"
        },
        {
            "domain": "Bbc.com"
        },
        {
            "domain": "Target.com"
        },
        {
            "domain": "Usps.com"
        },
        {
            "domain": "Spotify.com"
        },
        {
            "domain": "Stackexchange.com"
        },
        {
            "domain": "Forbes.com"
        },
        {
            "domain": "Godaddy.com"
        },
        {
            "domain": "Amazonaws.com"
        },
        {
            "domain": "Steamcommunity.com"
        },
        {
            "domain": "Vk.com"
        },
        {
            "domain": "Patch.com"
        },
        {
            "domain": "Slickdeals.net"
        },
        {
            "domain": "Roblox.com"
        },
        {
            "domain": "Dailymail.co.uk"
        },
        {
            "domain": "Deviantart.com"
        },
        {
            "domain": "Businessinsider.com"
        },
        {
            "domain": "Airbnb.com"
        },
        {
            "domain": "Discordapp.com"
        },
        {
            "domain": "Intuit.com"
        },
        {
            "domain": "Vimeo.com"
        },
        {
            "domain": "Chaturbate.com"
        },
        {
            "domain": "Citi.com"
        },
        {
            "domain": "Cnet.com"
        },
        {
            "domain": "Pandora.com"
        },
        {
            "domain": "Groupon.com"
        },
        {
            "domain": "Txxx.com"
        },
         
        {
            "domain": "oprah.com"
        },
        {
            "domain": "spirit.com"
        },
        {
            "domain": "Conservativetribune.com"
        },
        {
            "domain": "weddingwire.com"
        },
        {
            "domain": "kissanime.ru"
        }


    ]
}