{
	"websites": [{
			"domain": "Google.com"
		},
		{
			"domain": "Youtube.com"
		},
		{
			"domain": "Facebook.com"
		},
		{
			"domain": "Reddit.com"
		},
		{
			"domain": "Amazon.com"
		},
		{
			"domain": "Yahoo.com"
		},
		{
			"domain": "Wikipedia.org"
		},
		{
			"domain": "Twitter.com"
		},
		{
			"domain": "Ebay.com"
		},
		{
			"domain": "Netflix.com"
		},
		{
			"domain": "Imgur.com"
		},
		{
			"domain": "Linkedin.com"
		},
		{
			"domain": "Instagram.com"
		},
		{
			"domain": "Craigslist.org"
		},
		{
			"domain": "Twitch.tv"
		},
		{
			"domain": "Live.com"
		},
		{
			"domain": "Tumblr.com"
		},
		{
			"domain": "Pornhub.com"
		},
		{
			"domain": "Diply.com"
		},
		{
			"domain": "T.co"
		},
		{
			"domain": "Wikia.com"
		},
		{
			"domain": "Pinterest.com"
		},
		{
			"domain": "Bing.com"
		},
		{
			"domain": "Chase.com"
		},
		{
			"domain": "Microsoftonline.com"
		},
		{
			"domain": "Cnn.com"
		},
		{
			"domain": "Livejasmin.com"
		},
		{
			"domain": "Imdb.com"
		},
		{
			"domain": "Paypal.com"
		},
		{
			"domain": "Espn.com"
		},
		{
			"domain": "Office.com"
		},
		{
			"domain": "Nytimes.com"
		},
		{
			"domain": "Yelp.com"
		},
		{
			"domain": "Apple.com"
		},
		{
			"domain": "Walmart.com"
		},
		{
			"domain": "Bankofamerica.com"
		},
		{
			"domain": "Xvideos.com"
		},
		{
			"domain": "Wellsfargo.com"
		},
		{
			"domain": "Microsoft.com"
		},
		{
			"domain": "Metropcs.mobi"
		},
		{
			"domain": "Salesforce.com"
		},
		{
			"domain": "Zillow.com"
		},
		{
			"domain": "Blogspot.com"
		},
		{
			"domain": "Msn.com"
		},
		{
			"domain": "Washingtonpost.com"
		},
		{
			"domain": "Github.com"
		},
		{
			"domain": "Dropbox.com"
		},
		{
			"domain": "Stackoverflow.com"
		},
		{
			"domain": "Wordpress.com"
		},
		{
			"domain": "Indeed.com"

		},
		{
			"domain": "www.baidu.com"

		},
		{
			"domain": "www.qq.com"

		},
		{
			"domain": "www.sohu.com"

		},
		{
			"domain": "www.sina.com.cn"

		},
		{
			"domain": "www.360.cn"

		},
		{
			"domain": "www.sogou.com"

		},
		{
			"domain": "http://www.iqiyi.com/"

		},
		{
			"domain": "http://map.baidu.com/"

		},
		{
			"domain": "https://www.2345.com/"

		},
		{
			"domain": "https://www.so.com/?src=so.com"

		},
		{
			"domain": "www.taobao.com"

		},
		{
			"domain": "weibo.com"

		},
		{
			"domain": "www.tianya.cn"

		},
		{
			"domain": "58.com"

		},
		{
			"domain": "bitauto.com"

		},
		{
			"domain": "https://www.douban.com/"

		},
		{
			"domain": "http://tv.sohu.com/"

		},
		{
			"domain": "http://www.163.com/"

		},
		{
			"domain": "http://v.qq.com"

		},
		{
			"domain": "http://youku.com/"

		},
		{
			"domain": "http://ifeng.com/"

		},
		{
			"domain": "http://www.4399.com/"

		},
		{
			"domain": "Google.co.uk"

		},
		{
			"domain": "Bbc.co.uk"

		},
		{
			"domain": "Amazon.co.uk"

		},
		{
			"domain": "Theguardian.com"

		},
		{
			"domain": "Ebay.co.uk"

		},
		{
			"domain": "Dailymail.co.uk"

		},
		{
			"domain": "Bet365.com"

		},
		{
			"domain": "Google.ie"

		},
		{
			"domain": "Espncricinfo.com"

		},
		{
			"domain": "Asos.com"

		},
		{
			"domain": "Rt.com"

		},
		{
			"domain": "Telegraph.co.uk"

		},
		{
			"domain": "Independent.co.uk"

		},
		{
			"domain": "Edition.cnn.com"

		},
		{
			"domain": "Reuters.com"

		},
		{
			"domain": "Google.rs"

		},
		{
			"domain": "Hm.com"

		},
		{
			"domain": "Cambridge.org"

		},
		{
			"domain": "Webex.com"

		},
		{
			"domain": "Cdiscount.com"

		},
		{
			"domain": "Mirror.co.uk"

		},
		{
			"domain": "Https://my.screenname.aol.com/"

		},
		{
			"domain": "Thesun.co.uk"

		},
		{
			"domain": "Express.co.uk"

		},
		{
			"domain": "Https://www.united.com/"

		},
		{
			"domain": "Gov.uk"

		},
		{
			"domain": "Skysports.com"

		},
		{
			"domain": "Ryanair.com"

		},
		{
			"domain": "Rightmove.co.uk"

		},
		{
			"domain": "Metro.co.uk"

		},
		{
			"domain": "Sky.com"

		},
		{
			"domain": "Dw.com"

		},
		{
			"domain": "Skysports.com"

		},
		{
			"domain": "Eset.com"

		},
		{
			"domain": "Hsbc.co.uk"

		},
		{
			"domain": "Voyages-sncf.com"

		},
		{
			"domain": "Bt.com"

		},

		{
			"domain": "http://www.4399.com/"

		},
		{
			"domain": "Sap.com"

		},


		{
			"domain": "www.citibankonline.pl"
		},
		{
			"domain": "http://www.papajohns.com"
		}, {
			"domain": "oprah.com"
		},
		{
			"domain": "spirit.com"
		},
		{
			"domain": "http://www.bestbuy.com/"
		}
	]
}